<svg xmlns="http://www.w3.org/2000/svg" viewBox="0 0 100 100" fill="none" style="background-color:black;">
    <!-- Paddle -->
    <rect x="35" y="90" width="30" height="5" fill="purple" />

    <!-- Initial ball -->
    <circle cx="50" cy="80" r="2" fill="purple" />

    <!-- Dotted connections -->
    <line x1="50" y1="80" x2="30" y2="60" stroke="purple" stroke-width="1" stroke-dasharray="2" />
    <line x1="50" y1="80" x2="50" y2="60" stroke="purple" stroke-width="1" stroke-dasharray="2" />
    <line x1="50" y1="80" x2="70" y2="60" stroke="purple" stroke-width="1" stroke-dasharray="2" />

    <!-- First set of balls -->
    <circle cx="30" cy="60" r="2" fill="purple" />
    <circle cx="50" cy="60" r="2" fill="purple" />
    <circle cx="70" cy="60" r="2" fill="purple" />

    <!-- Connections -->
    <line x1="30" y1="60" x2="15" y2="40" stroke="purple" stroke-width="1" />
    <line x1="30" y1="60" x2="45" y2="40" stroke="purple" stroke-width="1" />
    <line x1="50" y1="60" x2="35" y2="40" stroke="purple" stroke-width="1" />
    <line x1="50" y1="60" x2="65" y2="40" stroke="purple" stroke-width="1" />
    <line x1="70" y1="60" x2="55" y2="40" stroke="purple" stroke-width="1" />
    <line x1="70" y1="60" x2="85" y2="40" stroke="purple" stroke-width="1" />

    <!-- Second set of balls -->
    <circle cx="15" cy="40" r="2" fill="purple" />
    <circle cx="45" cy="40" r="2" fill="purple" />
    <circle cx="35" cy="40" r="2" fill="purple" />
    <circle cx="65" cy="40" r="2" fill="purple" />
    <circle cx="55" cy="40" r="2" fill="purple" />
    <circle cx="85" cy="40" r="2" fill="purple" />
</svg>
